/home/java/NetBeansProjects/Kamil_Kalinski_JEE8/Kamil_Kalinski_edycja_JEE8/src/main/java/pl/lodz/p/it/spjava/dm/model/Zlozonezlecenie.java
/home/java/NetBeansProjects/Kamil_Kalinski_JEE8/Kamil_Kalinski_edycja_JEE8/src/main/java/pl/lodz/p/it/spjava/dm/model/Sektoryproduktow.java
/home/java/NetBeansProjects/Kamil_Kalinski_JEE8/Kamil_Kalinski_edycja_JEE8/src/main/java/pl/lodz/p/it/spjava/dm/ejb/endpoints/ZlecenieEndpoint.java
/home/java/NetBeansProjects/Kamil_Kalinski_JEE8/Kamil_Kalinski_edycja_JEE8/src/main/java/pl/lodz/p/it/spjava/dm/model/Produkt.java
/home/java/NetBeansProjects/Kamil_Kalinski_JEE8/Kamil_Kalinski_edycja_JEE8/src/main/java/pl/lodz/p/it/spjava/dm/dto/NewClass.java
/home/java/NetBeansProjects/Kamil_Kalinski_JEE8/Kamil_Kalinski_edycja_JEE8/src/main/java/pl/lodz/p/it/spjava/dm/dto/PortfelDTO.java
/home/java/NetBeansProjects/Kamil_Kalinski_JEE8/Kamil_Kalinski_edycja_JEE8/src/main/java/pl/lodz/p/it/spjava/dm/model/Danebroker.java
/home/java/NetBeansProjects/Kamil_Kalinski_JEE8/Kamil_Kalinski_edycja_JEE8/src/main/java/pl/lodz/p/it/spjava/dm/ejb/facades/SektoryproduktowFacade.java
/home/java/NetBeansProjects/Kamil_Kalinski_JEE8/Kamil_Kalinski_edycja_JEE8/src/main/java/pl/lodz/p/it/spjava/dm/dto/BrokerDTO.java
/home/java/NetBeansProjects/Kamil_Kalinski_JEE8/Kamil_Kalinski_edycja_JEE8/src/main/java/pl/lodz/p/it/spjava/dm/dto/AdministratorDTO.java
/home/java/NetBeansProjects/Kamil_Kalinski_JEE8/Kamil_Kalinski_edycja_JEE8/src/main/java/pl/lodz/p/it/spjava/dm/konto/KontoSession.java
/home/java/NetBeansProjects/Kamil_Kalinski_JEE8/Kamil_Kalinski_edycja_JEE8/src/main/java/pl/lodz/p/it/spjava/dm/ejb/facades/KontoFacade.java
/home/java/NetBeansProjects/Kamil_Kalinski_JEE8/Kamil_Kalinski_edycja_JEE8/src/main/java/pl/lodz/p/it/spjava/dm/ejb/endpoints/PortfelEndpoint.java
/home/java/NetBeansProjects/Kamil_Kalinski_JEE8/Kamil_Kalinski_edycja_JEE8/src/main/java/pl/lodz/p/it/spjava/dm/web/UtworzBrokeraPageBean.java
/home/java/NetBeansProjects/Kamil_Kalinski_JEE8/Kamil_Kalinski_edycja_JEE8/src/main/java/pl/lodz/p/it/spjava/dm/web/ProduktBean.java
/home/java/NetBeansProjects/Kamil_Kalinski_JEE8/Kamil_Kalinski_edycja_JEE8/src/main/java/pl/lodz/p/it/spjava/dm/web/UtworzProduktPageBean.java
/home/java/NetBeansProjects/Kamil_Kalinski_JEE8/Kamil_Kalinski_edycja_JEE8/src/main/java/pl/lodz/p/it/spjava/dm/dto/ZlecenieDTO.java
/home/java/NetBeansProjects/Kamil_Kalinski_JEE8/Kamil_Kalinski_edycja_JEE8/src/main/java/pl/lodz/p/it/spjava/dm/model/Daneklient.java
/home/java/NetBeansProjects/Kamil_Kalinski_JEE8/Kamil_Kalinski_edycja_JEE8/src/main/java/pl/lodz/p/it/spjava/dm/dto/ProduktDTO.java
/home/java/NetBeansProjects/Kamil_Kalinski_JEE8/Kamil_Kalinski_edycja_JEE8/src/main/java/pl/lodz/p/it/spjava/dm/model/Danelogowanie.java
/home/java/NetBeansProjects/Kamil_Kalinski_JEE8/Kamil_Kalinski_edycja_JEE8/src/main/java/pl/lodz/p/it/spjava/dm/ejb/endpoints/KontoEndpoint.java
/home/java/NetBeansProjects/Kamil_Kalinski_JEE8/Kamil_Kalinski_edycja_JEE8/src/main/java/pl/lodz/p/it/spjava/dm/ejb/facades/AbstractFacade.java
/home/java/NetBeansProjects/Kamil_Kalinski_JEE8/Kamil_Kalinski_edycja_JEE8/src/main/java/pl/lodz/p/it/spjava/dm/ejb/facades/DanebrokerFacade.java
/home/java/NetBeansProjects/Kamil_Kalinski_JEE8/Kamil_Kalinski_edycja_JEE8/src/main/java/pl/lodz/p/it/spjava/dm/ejb/facades/DanepersonalneFacade.java
/home/java/NetBeansProjects/Kamil_Kalinski_JEE8/Kamil_Kalinski_edycja_JEE8/src/main/java/pl/lodz/p/it/spjava/dm/ejb/facades/ProduktFacade.java
/home/java/NetBeansProjects/Kamil_Kalinski_JEE8/Kamil_Kalinski_edycja_JEE8/src/main/java/pl/lodz/p/it/spjava/dm/web/ListProduktPageBean.java
/home/java/NetBeansProjects/Kamil_Kalinski_JEE8/Kamil_Kalinski_edycja_JEE8/src/main/java/pl/lodz/p/it/spjava/dm/ejb/facades/DanelogowanieFacade.java
/home/java/NetBeansProjects/Kamil_Kalinski_JEE8/Kamil_Kalinski_edycja_JEE8/src/main/java/pl/lodz/p/it/spjava/dm/ejb/facades/DaneklientFacade.java
/home/java/NetBeansProjects/Kamil_Kalinski_JEE8/Kamil_Kalinski_edycja_JEE8/src/main/java/pl/lodz/p/it/spjava/dm/ejb/facades/ZlozonezlecenieFacade.java
/home/java/NetBeansProjects/Kamil_Kalinski_JEE8/Kamil_Kalinski_edycja_JEE8/src/main/java/pl/lodz/p/it/spjava/dm/dto/KlientDTO.java
/home/java/NetBeansProjects/Kamil_Kalinski_JEE8/Kamil_Kalinski_edycja_JEE8/src/main/java/pl/lodz/p/it/spjava/dm/produkt/ProduktSession.java
/home/java/NetBeansProjects/Kamil_Kalinski_JEE8/Kamil_Kalinski_edycja_JEE8/src/main/java/pl/lodz/p/it/spjava/dm/ejb/facades/ZatwierdzonezlecenieFacade.java
/home/java/NetBeansProjects/Kamil_Kalinski_JEE8/Kamil_Kalinski_edycja_JEE8/src/main/java/pl/lodz/p/it/spjava/dm/model/Daneadministrator.java
/home/java/NetBeansProjects/Kamil_Kalinski_JEE8/Kamil_Kalinski_edycja_JEE8/src/main/java/pl/lodz/p/it/spjava/dm/model/Konto.java
/home/java/NetBeansProjects/Kamil_Kalinski_JEE8/Kamil_Kalinski_edycja_JEE8/src/main/java/pl/lodz/p/it/spjava/dm/model/Danepersonalne.java
/home/java/NetBeansProjects/Kamil_Kalinski_JEE8/Kamil_Kalinski_edycja_JEE8/src/main/java/pl/lodz/p/it/spjava/dm/model/Zatwierdzonezlecenie.java
/home/java/NetBeansProjects/Kamil_Kalinski_JEE8/Kamil_Kalinski_edycja_JEE8/src/main/java/pl/lodz/p/it/spjava/dm/ejb/facades/DaneadministratorFacade.java
/home/java/NetBeansProjects/Kamil_Kalinski_JEE8/Kamil_Kalinski_edycja_JEE8/src/main/java/pl/lodz/p/it/spjava/dm/ejb/endpoints/ProduktEndpoint.java
